<?xml version="1.0" encoding="UTF-8" standalone="no"?>
<!-- Created with Inkscape (http://www.inkscape.org/) -->

<svg
   xmlns:dc="http://purl.org/dc/elements/1.1/"
   xmlns:cc="http://creativecommons.org/ns#"
   xmlns:rdf="http://www.w3.org/1999/02/22-rdf-syntax-ns#"
   xmlns:svg="http://www.w3.org/2000/svg"
   xmlns="http://www.w3.org/2000/svg"
   xmlns:xlink="http://www.w3.org/1999/xlink"
   xmlns:sodipodi="http://sodipodi.sourceforge.net/DTD/sodipodi-0.dtd"
   xmlns:inkscape="http://www.inkscape.org/namespaces/inkscape"
   width="1920"
   height="1080"
   viewBox="0 0 1920 1080"
   id="svg2"
   version="1.1"
   inkscape:version="0.92.3 (2405546, 2018-03-11)"
   sodipodi:docname="credits-03.svg"
   inkscape:export-filename="/home/konstantin/1-work/pepper-and-carrot-ep03/credits.en/credits-03.png"
   inkscape:export-xdpi="96"
   inkscape:export-ydpi="96">
  <defs
     id="defs4" />
  <sodipodi:namedview
     id="base"
     pagecolor="#ffffff"
     bordercolor="#666666"
     borderopacity="1.0"
     inkscape:pageopacity="0.0"
     inkscape:pageshadow="2"
     inkscape:zoom="0.49497475"
     inkscape:cx="302.23763"
     inkscape:cy="499.71882"
     inkscape:document-units="px"
     inkscape:current-layer="layer1"
     showgrid="false"
     inkscape:window-width="1920"
     inkscape:window-height="1025"
     inkscape:window-x="0"
     inkscape:window-y="0"
     inkscape:window-maximized="1"
     showguides="true"
     inkscape:guide-bbox="true"
     inkscape:snap-object-midpoints="true"
     inkscape:snap-center="true"
     inkscape:snap-bbox="true"
     inkscape:bbox-paths="true"
     inkscape:bbox-nodes="true"
     inkscape:snap-bbox-edge-midpoints="true"
     inkscape:snap-bbox-midpoints="true"
     inkscape:snap-global="false"
     units="px"
     fit-margin-top="0"
     fit-margin-left="0"
     fit-margin-right="0"
     fit-margin-bottom="0">
    <sodipodi:guide
       position="1420,9538.037"
       orientation="0,1"
       id="guide4528"
       inkscape:locked="false" />
    <sodipodi:guide
       position="1440.6211,9737.984"
       orientation="0,1"
       id="guide4530"
       inkscape:locked="false" />
    <inkscape:grid
       type="xygrid"
       id="grid4625"
       originx="14.28571"
       originy="8798.037" />
  </sodipodi:namedview>
  <metadata
     id="metadata7">
    <rdf:RDF>
      <cc:Work
         rdf:about="">
        <dc:format>image/svg+xml</dc:format>
        <dc:type
           rdf:resource="http://purl.org/dc/dcmitype/StillImage" />
        <dc:title></dc:title>
      </cc:Work>
    </rdf:RDF>
  </metadata>
  <g
     inkscape:groupmode="layer"
     id="layer2"
     inkscape:label="Layer 2"
     style="display:inline"
     transform="translate(14.28571,-8770.3991)" />
  <g
     inkscape:groupmode="layer"
     id="layer3"
     inkscape:label="Layer 3"
     style="display:inline"
     transform="translate(14.28571,-8770.3991)" />
  <g
     inkscape:label="Layer 1"
     inkscape:groupmode="layer"
     id="layer1"
     style="display:inline"
     transform="translate(14.28571,-8770.3991)">
    <rect
       style="display:inline;opacity:1;fill:#000000;fill-opacity:1;stroke:none;stroke-width:0.32239905;stroke-linecap:round;stroke-linejoin:bevel;stroke-miterlimit:4;stroke-dasharray:none;stroke-opacity:1"
       id="rect4427"
       width="2027.144"
       height="1169.0333"
       x="-71.988495"
       y="8737.668"
       inkscape:export-xdpi="80"
       inkscape:export-ydpi="80" />
    <text
       xml:space="preserve"
       style="font-style:normal;font-variant:normal;font-weight:normal;font-stretch:normal;line-height:0%;font-family:Arial;-inkscape-font-specification:Arial;letter-spacing:0.22px;word-spacing:0px;fill:#000000;fill-opacity:1;stroke:none;stroke-width:1px;stroke-linecap:butt;stroke-linejoin:miter;stroke-opacity:1"
       x="946.32953"
       y="8997.0312"
       id="text4136"
       inkscape:export-xdpi="80"
       inkscape:export-ydpi="80"><tspan
         sodipodi:role="line"
         x="946.43951"
         y="8997.0312"
         id="tspan4344"
         style="font-style:normal;font-variant:normal;font-weight:normal;font-stretch:normal;font-size:40px;line-height:125%;font-family:Arial;-inkscape-font-specification:Arial;text-align:center;writing-mode:lr-tb;text-anchor:middle;fill:#ffffff;fill-opacity:1">This animation is made with</tspan><tspan
         sodipodi:role="line"
         x="946.43951"
         y="9047.0312"
         style="font-style:normal;font-variant:normal;font-weight:normal;font-stretch:normal;font-size:40px;line-height:125%;font-family:Arial;-inkscape-font-specification:Arial;text-align:center;writing-mode:lr-tb;text-anchor:middle;fill:#ffffff;fill-opacity:1"
         id="tspan12455">free and open-source software</tspan></text>
    <flowRoot
       xml:space="preserve"
       id="flowRoot4346"
       style="font-style:normal;font-weight:normal;line-height:0.01%;font-family:sans-serif;letter-spacing:0.22px;word-spacing:0px;fill:#000000;fill-opacity:1;stroke:none;stroke-width:1px;stroke-linecap:butt;stroke-linejoin:miter;stroke-opacity:1"
       transform="translate(-148.88673,60.699616)"><flowRegion
         id="flowRegion4348"><rect
           id="rect4350"
           width="305.06607"
           height="4036.5696"
           x="105.05586"
           y="48.270576" /></flowRegion><flowPara
         id="flowPara4352"
         style="font-size:40px;line-height:1.25"> </flowPara></flowRoot>    <g
       style="display:inline"
       id="g4556"
       transform="translate(-303.41774,2731.5617)">
      <g
         transform="translate(114.38243)"
         id="g4528">
        <image
           xlink:href="../logos/logo-blender.png"
           width="191.39996"
           height="191.39996"
           preserveAspectRatio="none"
           style="image-rendering:optimizeQuality"
           id="image4381"
           x="1031.4088"
           y="6422.0869"
           sodipodi:absref="/home/konstantin/1-work/pepper-and-carrot-ep03/../../Nextcloud-Archive/animation-sources/pepper-and-carrot-ep06/credits/logos/logo-blender.png" />
        <flowRoot
           xml:space="preserve"
           id="flowRoot4468"
           style="font-style:normal;font-weight:normal;line-height:0.01%;font-family:sans-serif;letter-spacing:0px;word-spacing:0px;fill:#000000;fill-opacity:1;stroke:none;stroke-width:1px;stroke-linecap:butt;stroke-linejoin:miter;stroke-opacity:1"
           transform="translate(416.80899,87.020491)"><flowRegion
             id="flowRegion4470"><rect
               id="rect4472"
               width="342.85715"
               height="68.571426"
               x="537.14282"
               y="6523.7905" /></flowRegion><flowPara
             id="flowPara4474"
             style="font-style:normal;font-variant:normal;font-weight:bold;font-stretch:normal;font-size:40px;line-height:1.25;font-family:Arial;-inkscape-font-specification:'Arial Bold';text-align:center;text-anchor:middle;fill:#ffffff">Blender</flowPara></flowRoot>      </g>
      <g
         transform="translate(-405.68392)"
         id="g4535">
        <image
           xlink:href="../logos/logo-krita.png"
           width="191.39996"
           height="191.39996"
           preserveAspectRatio="none"
           style="image-rendering:optimizeQuality"
           id="image4392"
           x="1253.1508"
           y="6422.0869"
           sodipodi:absref="/home/konstantin/1-work/pepper-and-carrot-ep03/../../Nextcloud-Archive/animation-sources/pepper-and-carrot-ep06/credits/logos/logo-krita.png" />
        <flowRoot
           xml:space="preserve"
           id="flowRoot4468-8"
           style="font-style:normal;font-weight:normal;line-height:0.01%;font-family:sans-serif;letter-spacing:0px;word-spacing:0px;display:inline;fill:#000000;fill-opacity:1;stroke:none;stroke-width:1px;stroke-linecap:butt;stroke-linejoin:miter;stroke-opacity:1"
           transform="translate(639.4689,87.020491)"><flowRegion
             id="flowRegion4470-0"><rect
               id="rect4472-4"
               width="342.85715"
               height="68.571426"
               x="537.14282"
               y="6523.7905" /></flowRegion><flowPara
             style="font-style:normal;font-variant:normal;font-weight:bold;font-stretch:normal;font-size:40px;line-height:1.25;font-family:Arial;-inkscape-font-specification:'Arial Bold';text-align:center;text-anchor:middle;fill:#ffffff"
             id="flowPara4500">Krita</flowPara></flowRoot>      </g>
      <g
         transform="translate(-23.895386)"
         id="g4542">
        <image
           xlink:href="../logos/logo-renderchan.png"
           width="184.80324"
           height="184.80324"
           preserveAspectRatio="none"
           style="image-rendering:optimizeQuality"
           id="image4409"
           x="1471.3093"
           y="6425.3853"
           sodipodi:absref="/home/konstantin/1-work/pepper-and-carrot-ep03/../../Nextcloud-Archive/animation-sources/pepper-and-carrot-ep06/credits/logos/logo-renderchan.png" />
        <flowRoot
           xml:space="preserve"
           id="flowRoot4468-9"
           style="font-style:normal;font-weight:normal;line-height:0.01%;font-family:sans-serif;letter-spacing:0px;word-spacing:0px;display:inline;fill:#000000;fill-opacity:1;stroke:none;stroke-width:1px;stroke-linecap:butt;stroke-linejoin:miter;stroke-opacity:1"
           transform="translate(855.03223,87.254866)"><flowRegion
             id="flowRegion4470-1"><rect
               id="rect4472-9"
               width="342.85715"
               height="68.571426"
               x="537.14282"
               y="6523.7905" /></flowRegion><flowPara
             id="flowPara4474-6"
             style="font-style:normal;font-variant:normal;font-weight:bold;font-stretch:normal;font-size:40px;line-height:1.25;font-family:Arial;-inkscape-font-specification:'Arial Bold';text-align:center;text-anchor:middle;fill:#ffffff">RenderChan</flowPara></flowRoot>      </g>
      <g
         transform="translate(45.714162)"
         id="g4549">
        <image
           xlink:href="../logos/logo-papagayo-ng.png"
           width="184.80324"
           height="184.80324"
           preserveAspectRatio="none"
           style="image-rendering:optimizeQuality"
           id="image4420"
           x="1700.024"
           y="6425.3853"
           sodipodi:absref="/home/konstantin/1-work/pepper-and-carrot-ep03/../../Nextcloud-Archive/animation-sources/pepper-and-carrot-ep06/credits/logos/logo-papagayo-ng.png" />
        <flowRoot
           xml:space="preserve"
           id="flowRoot4468-2"
           style="font-style:normal;font-weight:normal;line-height:0.01%;font-family:sans-serif;letter-spacing:0px;word-spacing:0px;display:inline;fill:#000000;fill-opacity:1;stroke:none;stroke-width:1px;stroke-linecap:butt;stroke-linejoin:miter;stroke-opacity:1"
           transform="translate(1083.6005,87.290022)"><flowRegion
             id="flowRegion4470-5"><rect
               id="rect4472-44"
               width="342.85715"
               height="68.571426"
               x="537.14282"
               y="6523.7905" /></flowRegion><flowPara
             id="flowPara4474-9"
             style="font-style:normal;font-variant:normal;font-weight:bold;font-stretch:normal;font-size:40px;line-height:1.25;font-family:Arial;-inkscape-font-specification:'Arial Bold';text-align:center;text-anchor:middle;fill:#ffffff">Papagayo-NG</flowPara></flowRoot>      </g>
      <rect
         style="display:inline;opacity:1;fill:#000000;fill-opacity:1;stroke:none;stroke-width:8;stroke-miterlimit:4;stroke-dasharray:none;paint-order:markers stroke fill"
         id="rect16235"
         width="315.1676"
         height="296.98486"
         x="1691.5789"
         y="6398.5986" />
      <rect
         style="display:inline;opacity:1;fill:#000000;fill-opacity:1;stroke:none;stroke-width:8;stroke-miterlimit:4;stroke-dasharray:none;paint-order:markers stroke fill"
         id="rect16235-3"
         width="315.1676"
         height="296.98486"
         x="491.51761"
         y="6400.6191" />
    </g>
    <g
       style="display:inline"
       id="g4397"
       transform="matrix(0.34731097,0,0,0.34731097,531.9181,7187.1283)">
      <rect
         y="6609.5049"
         x="771.42853"
         height="422.85715"
         width="839.99994"
         id="rect4395"
         style="fill:#ffffff;fill-opacity:1;stroke:none;stroke-width:2;stroke-miterlimit:4;stroke-dasharray:none" />
      <image
         sodipodi:absref="/home/konstantin/1-work/pepper-and-carrot-ep03/logos/coa_tools_logo.png"
         xlink:href="../logos/coa_tools_logo.png"
         width="718"
         height="348"
         preserveAspectRatio="none"
         style="image-rendering:optimizeQuality"
         id="image4370"
         x="838.14276"
         y="6644.0762" />
    </g>
  </g>
  <g
     inkscape:groupmode="layer"
     id="layer4"
     inkscape:label="Layer 4"
     style="display:none"
     transform="translate(14.28571,-8770.3991)">
    <g
       transform="translate(-2.7875e-5,-4.102144e-5)"
       style="display:inline"
       id="g5002">
      <text
         id="text4273"
         y="111.58097"
         x="1441.4875"
         style="font-style:normal;font-weight:normal;line-height:0%;font-family:sans-serif;letter-spacing:0px;word-spacing:0px;fill:#000000;fill-opacity:1;stroke:none;stroke-width:1px;stroke-linecap:butt;stroke-linejoin:miter;stroke-opacity:1"
         xml:space="preserve"><tspan
           style="font-style:normal;font-variant:normal;font-weight:bold;font-stretch:normal;font-size:40px;line-height:1.25;font-family:Arial;-inkscape-font-specification:'Arial Bold';fill:#ffffff"
           y="111.58097"
           x="1441.4875"
           id="tspan4275"
           sodipodi:role="line">- Duffy Weber</tspan></text>
      <flowRoot
         transform="translate(13.425231,-2.232233)"
         style="font-style:normal;font-weight:normal;line-height:0.01%;font-family:sans-serif;letter-spacing:0px;word-spacing:0px;fill:#000000;fill-opacity:1;stroke:none;stroke-width:1px;stroke-linecap:butt;stroke-linejoin:miter;stroke-opacity:1"
         id="flowRoot4299"
         xml:space="preserve"><flowRegion
           id="flowRegion4301"><rect
             y="74.534538"
             x="1104.0967"
             height="45.456863"
             width="313.14728"
             id="rect4303" /></flowRegion><flowPara
           style="font-style:normal;font-variant:normal;font-weight:bold;font-stretch:normal;font-size:40px;line-height:1.25;font-family:Arial;-inkscape-font-specification:'Arial Bold';text-align:end;text-anchor:end;fill:#ffffff"
           id="flowPara4305">Mayor</flowPara></flowRoot>      <text
         xml:space="preserve"
         style="font-style:normal;font-weight:normal;line-height:0%;font-family:sans-serif;letter-spacing:0px;word-spacing:0px;fill:#000000;fill-opacity:1;stroke:none;stroke-width:1px;stroke-linecap:butt;stroke-linejoin:miter;stroke-opacity:1"
         x="1441.4875"
         y="61.815639"
         id="text4307"><tspan
           sodipodi:role="line"
           id="tspan4309"
           x="1441.4875"
           y="61.815639"
           style="font-style:normal;font-variant:normal;font-weight:bold;font-stretch:normal;font-size:40px;line-height:1.25;font-family:Arial;-inkscape-font-specification:'Arial Bold';fill:#ffffff">- Samantha Faye Ignacio</tspan></text>
      <flowRoot
         xml:space="preserve"
         id="flowRoot4311"
         style="font-style:normal;font-weight:normal;line-height:0.01%;font-family:sans-serif;letter-spacing:0px;word-spacing:0px;fill:#000000;fill-opacity:1;stroke:none;stroke-width:1px;stroke-linecap:butt;stroke-linejoin:miter;stroke-opacity:1"
         transform="translate(13.425231,-51.997565)"><flowRegion
           id="flowRegion4313"><rect
             id="rect4315"
             width="313.14728"
             height="45.456863"
             x="1104.0967"
             y="74.534538" /></flowRegion><flowPara
           id="flowPara4317"
           style="font-style:normal;font-variant:normal;font-weight:bold;font-stretch:normal;font-size:40px;line-height:1.25;font-family:Arial;-inkscape-font-specification:'Arial Bold';text-align:end;text-anchor:end;fill:#ffffff">Pepper</flowPara></flowRoot>      <text
         xml:space="preserve"
         style="font-style:normal;font-weight:normal;line-height:0%;font-family:sans-serif;letter-spacing:0px;word-spacing:0px;fill:#000000;fill-opacity:1;stroke:none;stroke-width:1px;stroke-linecap:butt;stroke-linejoin:miter;stroke-opacity:1"
         x="1441.4875"
         y="161.96233"
         id="text4357"><tspan
           sodipodi:role="line"
           id="tspan4359"
           x="1441.4875"
           y="161.96233"
           style="font-style:normal;font-variant:normal;font-weight:bold;font-stretch:normal;font-size:40px;line-height:1.25;font-family:Arial;-inkscape-font-specification:'Arial Bold';fill:#ffffff">- Ariel Hancock </tspan></text>
      <flowRoot
         xml:space="preserve"
         id="flowRoot4361"
         style="font-style:normal;font-weight:normal;line-height:0.01%;font-family:sans-serif;letter-spacing:0px;word-spacing:0px;fill:#000000;fill-opacity:1;stroke:none;stroke-width:1px;stroke-linecap:butt;stroke-linejoin:miter;stroke-opacity:1"
         transform="translate(13.425231,48.149125)"><flowRegion
           id="flowRegion4363"><rect
             id="rect4365"
             width="313.14728"
             height="45.456863"
             x="1104.0967"
             y="74.534538" /></flowRegion><flowPara
           id="flowPara4367"
           style="font-style:normal;font-variant:normal;font-weight:bold;font-stretch:normal;font-size:40px;line-height:1.25;font-family:Arial;-inkscape-font-specification:'Arial Bold';text-align:end;text-anchor:end;fill:#ffffff">Saffron</flowPara></flowRoot>      <text
         id="text4383"
         y="211.91002"
         x="1441.4875"
         style="font-style:normal;font-weight:normal;line-height:0%;font-family:sans-serif;letter-spacing:0px;word-spacing:0px;fill:#000000;fill-opacity:1;stroke:none;stroke-width:1px;stroke-linecap:butt;stroke-linejoin:miter;stroke-opacity:1"
         xml:space="preserve"><tspan
           style="font-style:normal;font-variant:normal;font-weight:bold;font-stretch:normal;font-size:40px;line-height:1.25;font-family:Arial;-inkscape-font-specification:'Arial Bold';fill:#ffffff"
           y="211.91002"
           x="1441.4875"
           id="tspan4385"
           sodipodi:role="line">- Marielena Alcaraz</tspan></text>
      <flowRoot
         transform="translate(13.425231,98.096821)"
         style="font-style:normal;font-weight:normal;line-height:0.01%;font-family:sans-serif;letter-spacing:0px;word-spacing:0px;fill:#000000;fill-opacity:1;stroke:none;stroke-width:1px;stroke-linecap:butt;stroke-linejoin:miter;stroke-opacity:1"
         id="flowRoot4387"
         xml:space="preserve"><flowRegion
           id="flowRegion4389"><rect
             y="74.534538"
             x="1104.0967"
             height="45.456863"
             width="313.14728"
             id="rect4391" /></flowRegion><flowPara
           style="font-style:normal;font-variant:normal;font-weight:bold;font-stretch:normal;font-size:40px;line-height:1.25;font-family:Arial;-inkscape-font-specification:'Arial Bold';text-align:end;text-anchor:end;fill:#ffffff"
           id="flowPara4393">Shichimi</flowPara></flowRoot>      <text
         xml:space="preserve"
         style="font-style:normal;font-weight:normal;line-height:0%;font-family:sans-serif;letter-spacing:0px;word-spacing:0px;fill:#000000;fill-opacity:1;stroke:none;stroke-width:1px;stroke-linecap:butt;stroke-linejoin:miter;stroke-opacity:1"
         x="1441.4875"
         y="261.91257"
         id="text4409"><tspan
           sodipodi:role="line"
           id="tspan4411"
           x="1441.4875"
           y="261.91257"
           style="font-style:normal;font-variant:normal;font-weight:bold;font-stretch:normal;font-size:40px;line-height:1.25;font-family:Arial;-inkscape-font-specification:'Arial Bold';fill:#ffffff">- Ariel Hancock</tspan></text>
      <flowRoot
         xml:space="preserve"
         id="flowRoot4413"
         style="font-style:normal;font-weight:normal;line-height:0.01%;font-family:sans-serif;letter-spacing:0px;word-spacing:0px;fill:#000000;fill-opacity:1;stroke:none;stroke-width:1px;stroke-linecap:butt;stroke-linejoin:miter;stroke-opacity:1"
         transform="translate(13.425231,148.09937)"><flowRegion
           id="flowRegion4415"><rect
             id="rect4417"
             width="313.14728"
             height="45.456863"
             x="1104.0967"
             y="74.534538" /></flowRegion><flowPara
           id="flowPara4419"
           style="font-style:normal;font-variant:normal;font-weight:bold;font-stretch:normal;font-size:40px;line-height:1.25;font-family:Arial;-inkscape-font-specification:'Arial Bold';text-align:end;text-anchor:end;fill:#ffffff">Coriander</flowPara></flowRoot>      <text
         id="text4441"
         y="311.83334"
         x="1441.4875"
         style="font-style:normal;font-weight:normal;line-height:0%;font-family:sans-serif;letter-spacing:0px;word-spacing:0px;fill:#000000;fill-opacity:1;stroke:none;stroke-width:1px;stroke-linecap:butt;stroke-linejoin:miter;stroke-opacity:1"
         xml:space="preserve"><tspan
           style="font-style:normal;font-variant:normal;font-weight:bold;font-stretch:normal;font-size:40px;line-height:1.25;font-family:Arial;-inkscape-font-specification:'Arial Bold';fill:#ffffff"
           y="311.83334"
           x="1441.4875"
           id="tspan4443"
           sodipodi:role="line">- Duffy Weber</tspan></text>
      <flowRoot
         transform="translate(13.425231,198.02015)"
         style="font-style:normal;font-weight:normal;line-height:0.01%;font-family:sans-serif;letter-spacing:0px;word-spacing:0px;fill:#000000;fill-opacity:1;stroke:none;stroke-width:1px;stroke-linecap:butt;stroke-linejoin:miter;stroke-opacity:1"
         id="flowRoot4445"
         xml:space="preserve"><flowRegion
           id="flowRegion4447"><rect
             y="74.534538"
             x="1104.0967"
             height="45.456863"
             width="313.14728"
             id="rect4449" /></flowRegion><flowPara
           style="font-style:normal;font-variant:normal;font-weight:bold;font-stretch:normal;font-size:40px;line-height:1.25;font-family:Arial;-inkscape-font-specification:'Arial Bold';text-align:end;text-anchor:end;fill:#ffffff"
           id="flowPara4451">Narrator</flowPara></flowRoot>    </g>
  </g>
</svg>
