{
    "name": "018",
    "nodes": [
        {
            "children": [],
            "frame_index": 0,
            "name": "knigh23.png",
            "node_path": "knigh23.png",
            "offset": [
                -1240,
                1751
            ],
            "opacity": 1.0,
            "pivot_offset": [
                0.0,
                0.0
            ],
            "position": [
                118,
                274
            ],
            "resource_path": "sprites/knigh23.png",
            "rotation": 0.0,
            "scale": [
                1.0,
                1.0
            ],
            "tiles_x": 1,
            "tiles_y": 1,
            "type": "SPRITE",
            "z": 0
        },
        {
            "children": [],
            "frame_index": 0,
            "name": "knight24.png",
            "node_path": "knight24.png",
            "offset": [
                -1240,
                1751
            ],
            "opacity": 1.0,
            "pivot_offset": [
                0.0,
                0.0
            ],
            "position": [
                118,
                274
            ],
            "resource_path": "sprites/knight24.png",
            "rotation": 0.0,
            "scale": [
                1.0,
                1.0
            ],
            "tiles_x": 1,
            "tiles_y": 1,
            "type": "SPRITE",
            "z": -1
        }
    ]
}