{
    "name": "007",
    "nodes": [
        {
            "children": [],
            "frame_index": 0,
            "name": "bridge.png",
            "node_path": "bridge.png",
            "offset": [
                -1240,
                563
            ],
            "opacity": 1.0,
            "pivot_offset": [
                0.0,
                0.0
            ],
            "position": [
                -79,
                697
            ],
            "resource_path": "sprites/bridge.png",
            "rotation": 0.0,
            "scale": [
                1.0,
                1.0
            ],
            "tiles_x": 1,
            "tiles_y": 1,
            "type": "SPRITE",
            "z": 0
        },
        {
            "children": [],
            "frame_index": 0,
            "name": "wall.png",
            "node_path": "wall.png",
            "offset": [
                -1240,
                563
            ],
            "opacity": 1.0,
            "pivot_offset": [
                0.0,
                0.0
            ],
            "position": [
                -87,
                391
            ],
            "resource_path": "sprites/wall.png",
            "rotation": 0.0,
            "scale": [
                1.0,
                1.0
            ],
            "tiles_x": 1,
            "tiles_y": 1,
            "type": "SPRITE",
            "z": -1
        },
        {
            "children": [],
            "frame_index": 0,
            "name": "girls.png",
            "node_path": "girls.png",
            "offset": [
                -1240,
                563
            ],
            "opacity": 1.0,
            "pivot_offset": [
                0.0,
                0.0
            ],
            "position": [
                938,
                557
            ],
            "resource_path": "sprites/girls.png",
            "rotation": 0.0,
            "scale": [
                1.0,
                1.0
            ],
            "tiles_x": 1,
            "tiles_y": 1,
            "type": "SPRITE",
            "z": -2
        },
        {
            "children": [],
            "frame_index": 0,
            "name": "rocks.png",
            "node_path": "rocks.png",
            "offset": [
                -1240,
                563
            ],
            "opacity": 1.0,
            "pivot_offset": [
                0.0,
                0.0
            ],
            "position": [
                -235,
                -323
            ],
            "resource_path": "sprites/rocks.png",
            "rotation": 0.0,
            "scale": [
                1.0,
                1.0
            ],
            "tiles_x": 1,
            "tiles_y": 1,
            "type": "SPRITE",
            "z": -3
        },
        {
            "children": [],
            "frame_index": 0,
            "name": "bgc.png",
            "node_path": "bgc.png",
            "offset": [
                -1240,
                563
            ],
            "opacity": 1.0,
            "pivot_offset": [
                0.0,
                0.0
            ],
            "position": [
                -758,
                -496
            ],
            "resource_path": "sprites/bgc.png",
            "rotation": 0.0,
            "scale": [
                1.0,
                1.0
            ],
            "tiles_x": 1,
            "tiles_y": 1,
            "type": "SPRITE",
            "z": -4
        }
    ]
}